Bias_simulation
…
tb <- tb %>%
  gather("Sample", "Actual", S1:S3) %>%
  mutate(Observed = Actual * Bias) %>%
  gather("Type", "Abundance", Actual, Observed) %>%
  mutate_by(c(Sample, Type), Proportion = close_elts(Abundance)) %>%
  select(Sample, Taxon, Bias, everything())
tb

## # A tibble: 24 x 6
##    Sample Taxon  Bias Type   Abundance Proportion
##    <chr>  <chr> <dbl> <chr>      <dbl>      <dbl>
##  1 S1     T1        1 Actual    1          0.25  
##  2 S1     T2       18 Actual    1          0.25  
##  3 S1     T3        6 Actual    1          0.25  
##  4 S1     T4        4 Actual    1          0.25  
##  5 S2     T1        1 Actual    1          0.682 
##  6 S2     T2       18 Actual    0.0667     0.0455
##  7 S2     T3        6 Actual    0.267      0.182 
##  8 S2     T4        4 Actual    0.133      0.0909
##  9 S3     T1        1 Actual    1          0.682 
## 10 S3     T2       18 Actual    0.267      0.182 
## # ... with 14 more rows
…
